{
	"info": {
		"_postman_id": "7032fabb-2c8d-4486-b147-f8d2d9020840",
		"name": "Funanimation_collection",
		"schema": "https://schema.getpostman.com/json/collection/v2.1.0/collection.json"
	},
	"item": [
		{
			"name": "Registration",
			"item": [
				{
					"name": "showRegistrationForm",
					"event": [
						{
							"listen": "test",
							"script": {
								"id": "3e739f43-693a-4a35-8bc2-6a3364668f6a",
								"exec": [
									"pm.test(\"Status code is 200\", function () {",
									"    pm.response.to.have.status(200);",
									"});",
									"",
									"pm.test(\"response should be okay to process\", function () {",
									"    pm.response.to.not.be.error;",
									"    pm.response.to.not.be.null;",
									"    pm.response.to.not.have.jsonBody(\"error\");",
									"});"
								],
								"type": "text/javascript"
							}
						}
					],
					"protocolProfileBehavior": {
						"disableBodyPruning": true
					},
					"request": {
						"method": "GET",
						"header": [
							{
								"warning": "Key contains invalid whitespace characters.",
								"key": "",
								"value": "",
								"type": "text"
							},
							{
								"key": "Content-Type",
								"name": "Content-Type",
								"value": "application/x-www-form-urlencoded",
								"type": "text"
							}
						],
						"body": {
							"mode": "urlencoded",
							"urlencoded": []
						},
						"url": {
							"raw": "{{baseUrl}}/registration",
							"host": [
								"{{baseUrl}}"
							],
							"path": [
								"registration"
							]
						}
					},
					"response": []
				},
				{
					"name": "registerUserAccount",
					"event": [
						{
							"listen": "test",
							"script": {
								"id": "232c2264-7580-47f1-808a-336a3b1026d8",
								"exec": [
									"pm.test(\"Status code is 200\", function () {",
									"    pm.response.to.have.status(200);",
									"});",
									"",
									"",
									"pm.test(\"Body matches string\", function () {",
									"    pm.expect(pm.response.text()).to.include(\"You have successfully registered.\");",
									"});",
									"",
									"",
									"",
									"",
									""
								],
								"type": "text/javascript"
							}
						}
					],
					"request": {
						"method": "POST",
						"header": [],
						"url": {
							"raw": "{{baseUrl}}/registration?confirmEmail=kremenja5@abv.bg&confirmPassword=qwerty123&email=kremenja5@abv.bg&firstName=krem&lastName=geo&password=qwerty123&terms=true",
							"host": [
								"{{baseUrl}}"
							],
							"path": [
								"registration"
							],
							"query": [
								{
									"key": "confirmEmail",
									"value": "kremenja5@abv.bg"
								},
								{
									"key": "confirmPassword",
									"value": "qwerty123"
								},
								{
									"key": "email",
									"value": "kremenja5@abv.bg"
								},
								{
									"key": "firstName",
									"value": "krem"
								},
								{
									"key": "lastName",
									"value": "geo"
								},
								{
									"key": "password",
									"value": "qwerty123"
								},
								{
									"key": "terms",
									"value": "true"
								}
							]
						}
					},
					"response": []
				}
			],
			"protocolProfileBehavior": {}
		},
		{
			"name": "Login",
			"item": [
				{
					"name": "showLogin",
					"event": [
						{
							"listen": "test",
							"script": {
								"id": "4c259587-043d-4143-8e05-38616ff26e28",
								"exec": [
									"pm.test(\"Status code is 200\", function () {",
									"    pm.response.to.have.status(200);",
									"});",
									""
								],
								"type": "text/javascript"
							}
						}
					],
					"request": {
						"method": "GET",
						"header": [],
						"url": {
							"raw": "{{baseUrl}}/login",
							"host": [
								"{{baseUrl}}"
							],
							"path": [
								"login"
							]
						}
					},
					"response": [
						{
							"name": "OK",
							"originalRequest": {
								"method": "GET",
								"header": [],
								"url": {
									"raw": "{{baseUrl}}/login",
									"host": [
										"{{baseUrl}}"
									],
									"path": [
										"login"
									]
								}
							},
							"status": "OK",
							"code": 200,
							"_postman_previewlanguage": "html",
							"header": [
								{
									"key": "Server",
									"value": "Cowboy"
								},
								{
									"key": "Connection",
									"value": "keep-alive"
								},
								{
									"key": "X-Content-Type-Options",
									"value": "nosniff"
								},
								{
									"key": "X-Xss-Protection",
									"value": "1; mode=block"
								},
								{
									"key": "Cache-Control",
									"value": "no-cache, no-store, max-age=0, must-revalidate"
								},
								{
									"key": "Pragma",
									"value": "no-cache"
								},
								{
									"key": "Expires",
									"value": "0"
								},
								{
									"key": "Strict-Transport-Security",
									"value": "max-age=31536000 ; includeSubDomains"
								},
								{
									"key": "X-Frame-Options",
									"value": "DENY"
								},
								{
									"key": "Content-Type",
									"value": "text/html;charset=UTF-8"
								},
								{
									"key": "Content-Language",
									"value": "en-US"
								},
								{
									"key": "Transfer-Encoding",
									"value": "chunked"
								},
								{
									"key": "Date",
									"value": "Mon, 25 Nov 2019 23:39:57 GMT"
								},
								{
									"key": "Via",
									"value": "1.1 vegur"
								}
							],
							"cookie": [],
							"body": "<!DOCTYPE html>\n<html xmlns=\"http://www.w3.org/1999/html\">\n    <head>\n        <link rel=\"icon\" type=\"image/png\" href=\"/pictures/fav.png\">\n        <meta http-equiv=\"content-type\" content=\"text/html; charset=UTF-8\">\n        <link rel=\"stylesheet\" type=\"text/css\" href=\"/css/style.css\">\n        <link rel=\"stylesheet\" type=\"text/css\" href=\"/css/w3.css\">\n        <link rel=\"stylesheet\" type=\"text/css\" href=\"/css/color-theme.css\">\n        <link rel=\"stylesheet\" type=\"text/css\"\n          href=\"/css/css_googleapis_open_sans.css\">\n        <link rel=\"stylesheet\" href=\"https://cdnjs.cloudflare.com/ajax/libs/font-awesome/4.7.0/css/font-awesome.min.css\">\n        <title>Login</title>\n    </head>\n    <body>\n        <div id=\"background-page\" style=\"background-image: url(/pictures/background2.jpg);\">\n            <!-- NAVBAR START -->\n            <div class=\"w3-top\">\n                <div class=\"w3-bar w3-theme-d2 w3-left-align w3-large\">\n                    <a class=\"w3-bar-item w3-button w3-hide-medium w3-hide-large w3-right w3-padding-large w3-hover-white w3-large w3-theme-d2\"\n               href=\"javascript:void(0);\" onclick=\"openNav()\">\n                        <em class=\"fa fa-bars\"></em>\n                    </a>\n                    <a href=\"/\" class=\"w3-bar-item w3-button w3-padding-large w3-theme-d4\">\n                        <em class=\"fa fa-home w3-margin-right\"></em>Funimation\n                    </a>\n                    <div class=\"modal\" id=\"searchingNow\">\n                        <!-- Modal content -->\n                        <div class=\"modal-content\" id=\"modalSearching\">\n                            <img src=\"/pictures/searching.gif\" style=\"margin-left: 40%; justify-content: center;\"></img>\n                        </div>\n                    </div>\n                </div>\n            </div>\n            <!-- Navbar on small screens -->\n            <div id=\"navMobileLinks\" class=\"w3-bar-block w3-theme-d2 w3-hide w3-hide-large w3-hide-medium w3-large\">\n                <a href=\"#\" class=\"w3-bar-item w3-button w3-padding-large\">Link 1</a>\n                <a href=\"#\" class=\"w3-bar-item w3-button w3-padding-large\">Link 2</a>\n                <a href=\"#\" class=\"w3-bar-item w3-button w3-padding-large\">Link 3</a>\n                <a href=\"#\" class=\"w3-bar-item w3-button w3-padding-large\">My\n            Profile</a>\n            </div>\n            <!-- NAVBAR END -->\n            <!-- PAGE AREA START -->\n            <!-- Page Container -->\n            <div class=\"w3-container w3-content\" style=\"max-width:1900px; min-height:100vh; margin-top:50px; margin-left: 20%\">\n                <!-- The Grid -->\n                <div class=\"w3-row\">\n                    <div class=\"container\">\n                        <div class=\"row\">\n                            <div class=\"col-md-6 col-md-offset-3\">\n                                <br>\n                                <h1>\n                                    <b>Login page</b>\n                                </h1>\n                                <br>\n                                <form action=\"/login\" method=\"post\">\n                                    <table>\n                                        <tr class=\"form-group\">\n                                            <td>\n                                                <label for=\"username\">\n                                                    <b>Email</b>\n                                                </label>:\n                                            </td>\n                                            <td>\n                                                <input type=\"text\" id=\"username\" name=\"username\" class=\"form-control\"\n                                           autofocus=\"autofocus\" placeholder=\"email@email.com\"/>\n                                            </td>\n                                        </tr>\n                                        <th>\n                                            <tr class=\"form-group\">\n                                                <td>\n                                                    <label for=\"password\">\n                                                        <b>Password</b>\n                                                    </label>:\n                                                </td>\n                                                <td>\n                                                    <input type=\"password\" id=\"password\" name=\"password\" class=\"form-control\"\n                                           placeholder=\"Password\"/>\n                                                </td>\n                                            </tr>\n                                        </table>\n                                        <br>\n                                        <br>\n                                        <div class=\"form-group\">\n                                            <div class=\"row\">\n                                                <div class=\"col-sm-6 col-sm-offset-3\">\n                                                    <input type=\"submit\" name=\"login-submit\" id=\"login-submit\"\n                                               class=\"w3-button w3-theme-d2\" value=\"Log In\"/>\n                                                </div>\n                                            </div>\n                                        </div>\n                                        <br>\n                                        <br>\n                                        <div class=\"form-group\">\n                                            <p>\n                                                <span>New user? \n                                                    <a href=\"/registration\">Register here</a>\n                                                </span>\n                                            </p>\n                                            <p>\n                                                <span>Forgot password?\n                                                    <a href=\"/forgot-password\">Request here</a>\n                                                </span>\n                                            </p>\n                                            <p>\n                                                <span >Request for validation of account? \n                                                    <a href=\"/new-validation\">Send request</a>\n                                                </span>\n                                            </p>\n                                        </div>\n                                    </form>\n                                </div>\n                            </div>\n                        </div>\n                        <!-- End Grid follows-->\n        \n                    </div>\n                    <!-- End Page Container follows-->\n    \n                </div>\n                <!-- Page Container END-->\n                <br>\n                <!-- Footer -->\n                <footer class=\"w3-container w3-theme-d3 w3-padding-16\" style=\"text-align: left\">\n                    <h5>\n                        <i class=\"fa fa-copyright\" aria-hidden=\"true\"></i> 2019 Team1 Telerik Academy Alpha Java\n                    </h5>\n                </footer>\n                <footer class=\"w3-container w3-theme-d5\" style=\"text-align: left\">\n                    <p>...\n            \n                        <a href=\"/swagger-ui.html\">Application API</a>\n                    </p>\n                </footer>\n                <footer class=\"w3-container w3-theme-d5\" style=\"text-align: left; margin-top: -80px;\">\n    </footer>\n                <!-- PAGE AREA END -->\n            </div>\n            <!--  Scripts-->\n            <!--<script th:src=\"@{https://ajax.googleapis.com/ajax/libs/jquery/3.2.1/jquery.min.js}\"-->\n            <!--src=\"https://ajax.googleapis.com/ajax/libs/jquery/3.2.1/jquery.min.js\"></script>-->\n            <script src=\"/js/jquery.min.js\"></script>\n            <script src=\"/js/init.js\"></script>\n            <script src=\"/js/users_infinite_scroll.js\"></script>\n        </body>\n    </html>"
						},
						{
							"name": "Forbidden",
							"originalRequest": {
								"method": "GET",
								"header": [],
								"url": {
									"raw": "{{baseUrl}}/login",
									"host": [
										"{{baseUrl}}"
									],
									"path": [
										"login"
									]
								}
							},
							"status": "Forbidden",
							"code": 403,
							"_postman_previewlanguage": "html",
							"header": [
								{
									"key": "Server",
									"value": "Cowboy"
								},
								{
									"key": "Connection",
									"value": "keep-alive"
								},
								{
									"key": "X-Content-Type-Options",
									"value": "nosniff"
								},
								{
									"key": "X-Xss-Protection",
									"value": "1; mode=block"
								},
								{
									"key": "Cache-Control",
									"value": "no-cache, no-store, max-age=0, must-revalidate"
								},
								{
									"key": "Pragma",
									"value": "no-cache"
								},
								{
									"key": "Expires",
									"value": "0"
								},
								{
									"key": "Strict-Transport-Security",
									"value": "max-age=31536000 ; includeSubDomains"
								},
								{
									"key": "X-Frame-Options",
									"value": "DENY"
								},
								{
									"key": "Content-Type",
									"value": "text/html;charset=UTF-8"
								},
								{
									"key": "Content-Language",
									"value": "en-US"
								},
								{
									"key": "Transfer-Encoding",
									"value": "chunked"
								},
								{
									"key": "Date",
									"value": "Mon, 25 Nov 2019 23:39:57 GMT"
								},
								{
									"key": "Via",
									"value": "1.1 vegur"
								}
							],
							"cookie": [],
							"body": "<!DOCTYPE html>\n<html xmlns=\"http://www.w3.org/1999/html\">\n    <head>\n        <link rel=\"icon\" type=\"image/png\" href=\"/pictures/fav.png\">\n        <meta http-equiv=\"content-type\" content=\"text/html; charset=UTF-8\">\n        <link rel=\"stylesheet\" type=\"text/css\" href=\"/css/style.css\">\n        <link rel=\"stylesheet\" type=\"text/css\" href=\"/css/w3.css\">\n        <link rel=\"stylesheet\" type=\"text/css\" href=\"/css/color-theme.css\">\n        <link rel=\"stylesheet\" type=\"text/css\"\n          href=\"/css/css_googleapis_open_sans.css\">\n        <link rel=\"stylesheet\" href=\"https://cdnjs.cloudflare.com/ajax/libs/font-awesome/4.7.0/css/font-awesome.min.css\">\n        <title>Login</title>\n    </head>\n    <body>\n        <div id=\"background-page\" style=\"background-image: url(/pictures/background2.jpg);\">\n            <!-- NAVBAR START -->\n            <div class=\"w3-top\">\n                <div class=\"w3-bar w3-theme-d2 w3-left-align w3-large\">\n                    <a class=\"w3-bar-item w3-button w3-hide-medium w3-hide-large w3-right w3-padding-large w3-hover-white w3-large w3-theme-d2\"\n               href=\"javascript:void(0);\" onclick=\"openNav()\">\n                        <em class=\"fa fa-bars\"></em>\n                    </a>\n                    <a href=\"/\" class=\"w3-bar-item w3-button w3-padding-large w3-theme-d4\">\n                        <em class=\"fa fa-home w3-margin-right\"></em>Funimation\n                    </a>\n                    <div class=\"modal\" id=\"searchingNow\">\n                        <!-- Modal content -->\n                        <div class=\"modal-content\" id=\"modalSearching\">\n                            <img src=\"/pictures/searching.gif\" style=\"margin-left: 40%; justify-content: center;\"></img>\n                        </div>\n                    </div>\n                </div>\n            </div>\n            <!-- Navbar on small screens -->\n            <div id=\"navMobileLinks\" class=\"w3-bar-block w3-theme-d2 w3-hide w3-hide-large w3-hide-medium w3-large\">\n                <a href=\"#\" class=\"w3-bar-item w3-button w3-padding-large\">Link 1</a>\n                <a href=\"#\" class=\"w3-bar-item w3-button w3-padding-large\">Link 2</a>\n                <a href=\"#\" class=\"w3-bar-item w3-button w3-padding-large\">Link 3</a>\n                <a href=\"#\" class=\"w3-bar-item w3-button w3-padding-large\">My\n            Profile</a>\n            </div>\n            <!-- NAVBAR END -->\n            <!-- PAGE AREA START -->\n            <!-- Page Container -->\n            <div class=\"w3-container w3-content\" style=\"max-width:1900px; min-height:100vh; margin-top:50px; margin-left: 20%\">\n                <!-- The Grid -->\n                <div class=\"w3-row\">\n                    <div class=\"container\">\n                        <div class=\"row\">\n                            <div class=\"col-md-6 col-md-offset-3\">\n                                <br>\n                                <h1>\n                                    <b>Login page</b>\n                                </h1>\n                                <br>\n                                <form action=\"/login\" method=\"post\">\n                                    <table>\n                                        <tr class=\"form-group\">\n                                            <td>\n                                                <label for=\"username\">\n                                                    <b>Email</b>\n                                                </label>:\n                                            </td>\n                                            <td>\n                                                <input type=\"text\" id=\"username\" name=\"username\" class=\"form-control\"\n                                           autofocus=\"autofocus\" placeholder=\"email@email.com\"/>\n                                            </td>\n                                        </tr>\n                                        <th>\n                                            <tr class=\"form-group\">\n                                                <td>\n                                                    <label for=\"password\">\n                                                        <b>Password</b>\n                                                    </label>:\n                                                </td>\n                                                <td>\n                                                    <input type=\"password\" id=\"password\" name=\"password\" class=\"form-control\"\n                                           placeholder=\"Password\"/>\n                                                </td>\n                                            </tr>\n                                        </table>\n                                        <br>\n                                        <br>\n                                        <div class=\"form-group\">\n                                            <div class=\"row\">\n                                                <div class=\"col-sm-6 col-sm-offset-3\">\n                                                    <input type=\"submit\" name=\"login-submit\" id=\"login-submit\"\n                                               class=\"w3-button w3-theme-d2\" value=\"Log In\"/>\n                                                </div>\n                                            </div>\n                                        </div>\n                                        <br>\n                                        <br>\n                                        <div class=\"form-group\">\n                                            <p>\n                                                <span>New user? \n                                                    <a href=\"/registration\">Register here</a>\n                                                </span>\n                                            </p>\n                                            <p>\n                                                <span>Forgot password?\n                                                    <a href=\"/forgot-password\">Request here</a>\n                                                </span>\n                                            </p>\n                                            <p>\n                                                <span >Request for validation of account? \n                                                    <a href=\"/new-validation\">Send request</a>\n                                                </span>\n                                            </p>\n                                        </div>\n                                    </form>\n                                </div>\n                            </div>\n                        </div>\n                        <!-- End Grid follows-->\n        \n                    </div>\n                    <!-- End Page Container follows-->\n    \n                </div>\n                <!-- Page Container END-->\n                <br>\n                <!-- Footer -->\n                <footer class=\"w3-container w3-theme-d3 w3-padding-16\" style=\"text-align: left\">\n                    <h5>\n                        <i class=\"fa fa-copyright\" aria-hidden=\"true\"></i> 2019 Team1 Telerik Academy Alpha Java\n                    </h5>\n                </footer>\n                <footer class=\"w3-container w3-theme-d5\" style=\"text-align: left\">\n                    <p>...\n            \n                        <a href=\"/swagger-ui.html\">Application API</a>\n                    </p>\n                </footer>\n                <footer class=\"w3-container w3-theme-d5\" style=\"text-align: left; margin-top: -80px;\">\n    </footer>\n                <!-- PAGE AREA END -->\n            </div>\n            <!--  Scripts-->\n            <!--<script th:src=\"@{https://ajax.googleapis.com/ajax/libs/jquery/3.2.1/jquery.min.js}\"-->\n            <!--src=\"https://ajax.googleapis.com/ajax/libs/jquery/3.2.1/jquery.min.js\"></script>-->\n            <script src=\"/js/jquery.min.js\"></script>\n            <script src=\"/js/init.js\"></script>\n            <script src=\"/js/users_infinite_scroll.js\"></script>\n        </body>\n    </html>"
						},
						{
							"name": "Not Found",
							"originalRequest": {
								"method": "GET",
								"header": [],
								"url": {
									"raw": "{{baseUrl}}/login",
									"host": [
										"{{baseUrl}}"
									],
									"path": [
										"login"
									]
								}
							},
							"status": "Not Found",
							"code": 404,
							"_postman_previewlanguage": "html",
							"header": [
								{
									"key": "Server",
									"value": "Cowboy"
								},
								{
									"key": "Connection",
									"value": "keep-alive"
								},
								{
									"key": "X-Content-Type-Options",
									"value": "nosniff"
								},
								{
									"key": "X-Xss-Protection",
									"value": "1; mode=block"
								},
								{
									"key": "Cache-Control",
									"value": "no-cache, no-store, max-age=0, must-revalidate"
								},
								{
									"key": "Pragma",
									"value": "no-cache"
								},
								{
									"key": "Expires",
									"value": "0"
								},
								{
									"key": "Strict-Transport-Security",
									"value": "max-age=31536000 ; includeSubDomains"
								},
								{
									"key": "X-Frame-Options",
									"value": "DENY"
								},
								{
									"key": "Content-Type",
									"value": "text/html;charset=UTF-8"
								},
								{
									"key": "Content-Language",
									"value": "en-US"
								},
								{
									"key": "Transfer-Encoding",
									"value": "chunked"
								},
								{
									"key": "Date",
									"value": "Mon, 25 Nov 2019 23:35:35 GMT"
								},
								{
									"key": "Via",
									"value": "1.1 vegur"
								}
							],
							"cookie": [],
							"body": "<!DOCTYPE html>\n<html xmlns=\"http://www.w3.org/1999/html\">\n    <head>\n        <link rel=\"icon\" type=\"image/png\" href=\"/pictures/fav.png\">\n        <meta http-equiv=\"content-type\" content=\"text/html; charset=UTF-8\">\n        <link rel=\"stylesheet\" type=\"text/css\" href=\"/css/style.css\">\n        <link rel=\"stylesheet\" type=\"text/css\" href=\"/css/w3.css\">\n        <link rel=\"stylesheet\" type=\"text/css\" href=\"/css/color-theme.css\">\n        <link rel=\"stylesheet\" type=\"text/css\"\n          href=\"/css/css_googleapis_open_sans.css\">\n        <link rel=\"stylesheet\" href=\"https://cdnjs.cloudflare.com/ajax/libs/font-awesome/4.7.0/css/font-awesome.min.css\">\n        <title>Login</title>\n    </head>\n    <body>\n        <div id=\"background-page\" style=\"background-image: url(/pictures/background2.jpg);\">\n            <!-- NAVBAR START -->\n            <div class=\"w3-top\">\n                <div class=\"w3-bar w3-theme-d2 w3-left-align w3-large\">\n                    <a class=\"w3-bar-item w3-button w3-hide-medium w3-hide-large w3-right w3-padding-large w3-hover-white w3-large w3-theme-d2\"\n               href=\"javascript:void(0);\" onclick=\"openNav()\">\n                        <em class=\"fa fa-bars\"></em>\n                    </a>\n                    <a href=\"/\" class=\"w3-bar-item w3-button w3-padding-large w3-theme-d4\">\n                        <em class=\"fa fa-home w3-margin-right\"></em>Funimation\n                    </a>\n                    <div class=\"modal\" id=\"searchingNow\">\n                        <!-- Modal content -->\n                        <div class=\"modal-content\" id=\"modalSearching\">\n                            <img src=\"/pictures/searching.gif\" style=\"margin-left: 40%; justify-content: center;\"></img>\n                        </div>\n                    </div>\n                </div>\n            </div>\n            <!-- Navbar on small screens -->\n            <div id=\"navMobileLinks\" class=\"w3-bar-block w3-theme-d2 w3-hide w3-hide-large w3-hide-medium w3-large\">\n                <a href=\"#\" class=\"w3-bar-item w3-button w3-padding-large\">Link 1</a>\n                <a href=\"#\" class=\"w3-bar-item w3-button w3-padding-large\">Link 2</a>\n                <a href=\"#\" class=\"w3-bar-item w3-button w3-padding-large\">Link 3</a>\n                <a href=\"#\" class=\"w3-bar-item w3-button w3-padding-large\">My\n            Profile</a>\n            </div>\n            <!-- NAVBAR END -->\n            <!-- PAGE AREA START -->\n            <!-- Page Container -->\n            <div class=\"w3-container w3-content\" style=\"max-width:1900px; min-height:100vh; margin-top:50px; margin-left: 20%\">\n                <!-- The Grid -->\n                <div class=\"w3-row\">\n                    <div class=\"container\">\n                        <div class=\"row\">\n                            <div class=\"col-md-6 col-md-offset-3\">\n                                <br>\n                                <h1>\n                                    <b>Login page</b>\n                                </h1>\n                                <br>\n                                <form action=\"/login\" method=\"post\">\n                                    <table>\n                                        <tr class=\"form-group\">\n                                            <td>\n                                                <label for=\"username\">\n                                                    <b>Email</b>\n                                                </label>:\n                                            </td>\n                                            <td>\n                                                <input type=\"text\" id=\"username\" name=\"username\" class=\"form-control\"\n                                           autofocus=\"autofocus\" placeholder=\"email@email.com\"/>\n                                            </td>\n                                        </tr>\n                                        <th>\n                                            <tr class=\"form-group\">\n                                                <td>\n                                                    <label for=\"password\">\n                                                        <b>Password</b>\n                                                    </label>:\n                                                </td>\n                                                <td>\n                                                    <input type=\"password\" id=\"password\" name=\"password\" class=\"form-control\"\n                                           placeholder=\"Password\"/>\n                                                </td>\n                                            </tr>\n                                        </table>\n                                        <br>\n                                        <br>\n                                        <div class=\"form-group\">\n                                            <div class=\"row\">\n                                                <div class=\"col-sm-6 col-sm-offset-3\">\n                                                    <input type=\"submit\" name=\"login-submit\" id=\"login-submit\"\n                                               class=\"w3-button w3-theme-d2\" value=\"Log In\"/>\n                                                </div>\n                                            </div>\n                                        </div>\n                                        <br>\n                                        <br>\n                                        <div class=\"form-group\">\n                                            <p>\n                                                <span>New user? \n                                                    <a href=\"/registration\">Register here</a>\n                                                </span>\n                                            </p>\n                                            <p>\n                                                <span>Forgot password?\n                                                    <a href=\"/forgot-password\">Request here</a>\n                                                </span>\n                                            </p>\n                                            <p>\n                                                <span >Request for validation of account? \n                                                    <a href=\"/new-validation\">Send request</a>\n                                                </span>\n                                            </p>\n                                        </div>\n                                    </form>\n                                </div>\n                            </div>\n                        </div>\n                        <!-- End Grid follows-->\n        \n                    </div>\n                    <!-- End Page Container follows-->\n    \n                </div>\n                <!-- Page Container END-->\n                <br>\n                <!-- Footer -->\n                <footer class=\"w3-container w3-theme-d3 w3-padding-16\" style=\"text-align: left\">\n                    <h5>\n                        <i class=\"fa fa-copyright\" aria-hidden=\"true\"></i> 2019 Team1 Telerik Academy Alpha Java\n                    </h5>\n                </footer>\n                <footer class=\"w3-container w3-theme-d5\" style=\"text-align: left\">\n                    <p>...\n            \n                        <a href=\"/swagger-ui.html\">Application API</a>\n                    </p>\n                </footer>\n                <footer class=\"w3-container w3-theme-d5\" style=\"text-align: left; margin-top: -80px;\">\n    </footer>\n                <!-- PAGE AREA END -->\n            </div>\n            <!--  Scripts-->\n            <!--<script th:src=\"@{https://ajax.googleapis.com/ajax/libs/jquery/3.2.1/jquery.min.js}\"-->\n            <!--src=\"https://ajax.googleapis.com/ajax/libs/jquery/3.2.1/jquery.min.js\"></script>-->\n            <script src=\"/js/jquery.min.js\"></script>\n            <script src=\"/js/init.js\"></script>\n            <script src=\"/js/users_infinite_scroll.js\"></script>\n        </body>\n    </html>"
						},
						{
							"name": "Unauthhorized",
							"originalRequest": {
								"method": "GET",
								"header": [],
								"url": {
									"raw": "{{baseUrl}}/login",
									"host": [
										"{{baseUrl}}"
									],
									"path": [
										"login"
									]
								}
							},
							"status": "Unauthorized",
							"code": 401,
							"_postman_previewlanguage": "html",
							"header": [
								{
									"key": "Server",
									"value": "Cowboy"
								},
								{
									"key": "Connection",
									"value": "keep-alive"
								},
								{
									"key": "X-Content-Type-Options",
									"value": "nosniff"
								},
								{
									"key": "X-Xss-Protection",
									"value": "1; mode=block"
								},
								{
									"key": "Cache-Control",
									"value": "no-cache, no-store, max-age=0, must-revalidate"
								},
								{
									"key": "Pragma",
									"value": "no-cache"
								},
								{
									"key": "Expires",
									"value": "0"
								},
								{
									"key": "Strict-Transport-Security",
									"value": "max-age=31536000 ; includeSubDomains"
								},
								{
									"key": "X-Frame-Options",
									"value": "DENY"
								},
								{
									"key": "Content-Type",
									"value": "text/html;charset=UTF-8"
								},
								{
									"key": "Content-Language",
									"value": "en-US"
								},
								{
									"key": "Transfer-Encoding",
									"value": "chunked"
								},
								{
									"key": "Date",
									"value": "Mon, 25 Nov 2019 23:39:57 GMT"
								},
								{
									"key": "Via",
									"value": "1.1 vegur"
								}
							],
							"cookie": [],
							"body": "<!DOCTYPE html>\n<html xmlns=\"http://www.w3.org/1999/html\">\n    <head>\n        <link rel=\"icon\" type=\"image/png\" href=\"/pictures/fav.png\">\n        <meta http-equiv=\"content-type\" content=\"text/html; charset=UTF-8\">\n        <link rel=\"stylesheet\" type=\"text/css\" href=\"/css/style.css\">\n        <link rel=\"stylesheet\" type=\"text/css\" href=\"/css/w3.css\">\n        <link rel=\"stylesheet\" type=\"text/css\" href=\"/css/color-theme.css\">\n        <link rel=\"stylesheet\" type=\"text/css\"\n          href=\"/css/css_googleapis_open_sans.css\">\n        <link rel=\"stylesheet\" href=\"https://cdnjs.cloudflare.com/ajax/libs/font-awesome/4.7.0/css/font-awesome.min.css\">\n        <title>Login</title>\n    </head>\n    <body>\n        <div id=\"background-page\" style=\"background-image: url(/pictures/background2.jpg);\">\n            <!-- NAVBAR START -->\n            <div class=\"w3-top\">\n                <div class=\"w3-bar w3-theme-d2 w3-left-align w3-large\">\n                    <a class=\"w3-bar-item w3-button w3-hide-medium w3-hide-large w3-right w3-padding-large w3-hover-white w3-large w3-theme-d2\"\n               href=\"javascript:void(0);\" onclick=\"openNav()\">\n                        <em class=\"fa fa-bars\"></em>\n                    </a>\n                    <a href=\"/\" class=\"w3-bar-item w3-button w3-padding-large w3-theme-d4\">\n                        <em class=\"fa fa-home w3-margin-right\"></em>Funimation\n                    </a>\n                    <div class=\"modal\" id=\"searchingNow\">\n                        <!-- Modal content -->\n                        <div class=\"modal-content\" id=\"modalSearching\">\n                            <img src=\"/pictures/searching.gif\" style=\"margin-left: 40%; justify-content: center;\"></img>\n                        </div>\n                    </div>\n                </div>\n            </div>\n            <!-- Navbar on small screens -->\n            <div id=\"navMobileLinks\" class=\"w3-bar-block w3-theme-d2 w3-hide w3-hide-large w3-hide-medium w3-large\">\n                <a href=\"#\" class=\"w3-bar-item w3-button w3-padding-large\">Link 1</a>\n                <a href=\"#\" class=\"w3-bar-item w3-button w3-padding-large\">Link 2</a>\n                <a href=\"#\" class=\"w3-bar-item w3-button w3-padding-large\">Link 3</a>\n                <a href=\"#\" class=\"w3-bar-item w3-button w3-padding-large\">My\n            Profile</a>\n            </div>\n            <!-- NAVBAR END -->\n            <!-- PAGE AREA START -->\n            <!-- Page Container -->\n            <div class=\"w3-container w3-content\" style=\"max-width:1900px; min-height:100vh; margin-top:50px; margin-left: 20%\">\n                <!-- The Grid -->\n                <div class=\"w3-row\">\n                    <div class=\"container\">\n                        <div class=\"row\">\n                            <div class=\"col-md-6 col-md-offset-3\">\n                                <br>\n                                <h1>\n                                    <b>Login page</b>\n                                </h1>\n                                <br>\n                                <form action=\"/login\" method=\"post\">\n                                    <table>\n                                        <tr class=\"form-group\">\n                                            <td>\n                                                <label for=\"username\">\n                                                    <b>Email</b>\n                                                </label>:\n                                            </td>\n                                            <td>\n                                                <input type=\"text\" id=\"username\" name=\"username\" class=\"form-control\"\n                                           autofocus=\"autofocus\" placeholder=\"email@email.com\"/>\n                                            </td>\n                                        </tr>\n                                        <th>\n                                            <tr class=\"form-group\">\n                                                <td>\n                                                    <label for=\"password\">\n                                                        <b>Password</b>\n                                                    </label>:\n                                                </td>\n                                                <td>\n                                                    <input type=\"password\" id=\"password\" name=\"password\" class=\"form-control\"\n                                           placeholder=\"Password\"/>\n                                                </td>\n                                            </tr>\n                                        </table>\n                                        <br>\n                                        <br>\n                                        <div class=\"form-group\">\n                                            <div class=\"row\">\n                                                <div class=\"col-sm-6 col-sm-offset-3\">\n                                                    <input type=\"submit\" name=\"login-submit\" id=\"login-submit\"\n                                               class=\"w3-button w3-theme-d2\" value=\"Log In\"/>\n                                                </div>\n                                            </div>\n                                        </div>\n                                        <br>\n                                        <br>\n                                        <div class=\"form-group\">\n                                            <p>\n                                                <span>New user? \n                                                    <a href=\"/registration\">Register here</a>\n                                                </span>\n                                            </p>\n                                            <p>\n                                                <span>Forgot password?\n                                                    <a href=\"/forgot-password\">Request here</a>\n                                                </span>\n                                            </p>\n                                            <p>\n                                                <span >Request for validation of account? \n                                                    <a href=\"/new-validation\">Send request</a>\n                                                </span>\n                                            </p>\n                                        </div>\n                                    </form>\n                                </div>\n                            </div>\n                        </div>\n                        <!-- End Grid follows-->\n        \n                    </div>\n                    <!-- End Page Container follows-->\n    \n                </div>\n                <!-- Page Container END-->\n                <br>\n                <!-- Footer -->\n                <footer class=\"w3-container w3-theme-d3 w3-padding-16\" style=\"text-align: left\">\n                    <h5>\n                        <i class=\"fa fa-copyright\" aria-hidden=\"true\"></i> 2019 Team1 Telerik Academy Alpha Java\n                    </h5>\n                </footer>\n                <footer class=\"w3-container w3-theme-d5\" style=\"text-align: left\">\n                    <p>...\n            \n                        <a href=\"/swagger-ui.html\">Application API</a>\n                    </p>\n                </footer>\n                <footer class=\"w3-container w3-theme-d5\" style=\"text-align: left; margin-top: -80px;\">\n    </footer>\n                <!-- PAGE AREA END -->\n            </div>\n            <!--  Scripts-->\n            <!--<script th:src=\"@{https://ajax.googleapis.com/ajax/libs/jquery/3.2.1/jquery.min.js}\"-->\n            <!--src=\"https://ajax.googleapis.com/ajax/libs/jquery/3.2.1/jquery.min.js\"></script>-->\n            <script src=\"/js/jquery.min.js\"></script>\n            <script src=\"/js/init.js\"></script>\n            <script src=\"/js/users_infinite_scroll.js\"></script>\n        </body>\n    </html>"
						}
					]
				}
			],
			"protocolProfileBehavior": {}
		},
		{
			"name": "Post_Rest-Controller",
			"item": [
				{
					"name": "getAllPosts",
					"event": [
						{
							"listen": "test",
							"script": {
								"id": "21122010-7397-412f-ba2f-92d107ce6857",
								"exec": [
									"pm.test(\"Status code is 200\", function () {",
									"    pm.response.to.have.status(200);",
									"});",
									"",
									"",
									"console.log();",
									"",
									"pm.test(\"response should be okay to process\", function () {",
									"    pm.response.to.not.be.error;",
									"    pm.response.to.not.be.null;",
									"    pm.response.to.not.have.jsonBody(\"error\");",
									"});",
									"tests[\"content-type header is present\"] = postman.getResponseHeader(\"content-type\");"
								],
								"type": "text/javascript"
							}
						}
					],
					"request": {
						"method": "GET",
						"header": [],
						"url": {
							"raw": "{{baseUrl}}/api/posts/admin/1/1",
							"host": [
								"{{baseUrl}}"
							],
							"path": [
								"api",
								"posts",
								"admin",
								"1",
								"1"
							]
						}
					},
					"response": []
				},
				{
					"name": "getAllPublicPost",
					"event": [
						{
							"listen": "test",
							"script": {
								"id": "280bf5b1-5074-476b-9195-6ca3ec3d1824",
								"exec": [
									"",
									"pm.test(\"Status code is 200\", function () {",
									"    pm.response.to.have.status(200);",
									"});",
									"",
									"pm.test(\"Check family name of the author of the first post\", function () {",
									"    var jsonData = pm.response.json();",
									"    pm.expect(jsonData[0].author.lastName).to.eql(\"Stoyanova\");",
									"});",
									"",
									"pm.test(\"Check the city of the author of the first post\", function () {",
									"    var jsonData = pm.response.json();",
									"    pm.expect(jsonData[0].author.city.cityName).to.eql(\"Sofia\");",
									"});"
								],
								"type": "text/javascript"
							}
						}
					],
					"protocolProfileBehavior": {
						"disableBodyPruning": true
					},
					"request": {
						"auth": {
							"type": "noauth"
						},
						"method": "GET",
						"header": [
							{
								"key": "Content-Type",
								"name": "Content-Type",
								"value": "application/x-www-form-urlencoded",
								"type": "text"
							}
						],
						"body": {
							"mode": "urlencoded",
							"urlencoded": [
								{
									"key": "fromPage",
									"value": "1",
									"type": "text"
								},
								{
									"key": "postsPerPage",
									"value": "4",
									"type": "text"
								}
							]
						},
						"url": {
							"raw": "{{baseUrl}}/api/posts/1/1",
							"host": [
								"{{baseUrl}}"
							],
							"path": [
								"api",
								"posts",
								"1",
								"1"
							]
						}
					},
					"response": [
						{
							"name": "Unauthorized",
							"originalRequest": {
								"method": "GET",
								"header": [],
								"url": {
									"raw": "{{baseUrl}}/api/posts/<integer>/<integer>",
									"host": [
										"{{baseUrl}}"
									],
									"path": [
										"api",
										"posts",
										"<integer>",
										"<integer>"
									]
								}
							},
							"status": "Unauthorized",
							"code": 401,
							"_postman_previewlanguage": "text",
							"header": [
								{
									"key": "Content-Type",
									"value": "text/plain"
								}
							],
							"cookie": [],
							"body": ""
						},
						{
							"name": "OK",
							"originalRequest": {
								"method": "GET",
								"header": [],
								"url": {
									"raw": "{{baseUrl}}/api/posts/<integer>/<integer>",
									"host": [
										"{{baseUrl}}"
									],
									"path": [
										"api",
										"posts",
										"<integer>",
										"<integer>"
									]
								}
							},
							"status": "OK",
							"code": 200,
							"_postman_previewlanguage": "text",
							"header": [
								{
									"key": "Content-Type",
									"value": "*/*"
								}
							],
							"cookie": [],
							"body": ""
						},
						{
							"name": "Forbidden",
							"originalRequest": {
								"method": "GET",
								"header": [],
								"url": {
									"raw": "{{baseUrl}}/api/posts/<integer>/<integer>",
									"host": [
										"{{baseUrl}}"
									],
									"path": [
										"api",
										"posts",
										"<integer>",
										"<integer>"
									]
								}
							},
							"status": "Forbidden",
							"code": 403,
							"_postman_previewlanguage": "text",
							"header": [
								{
									"key": "Content-Type",
									"value": "text/plain"
								}
							],
							"cookie": [],
							"body": ""
						},
						{
							"name": "Not Found",
							"originalRequest": {
								"method": "GET",
								"header": [],
								"url": {
									"raw": "{{baseUrl}}/api/posts/<integer>/<integer>",
									"host": [
										"{{baseUrl}}"
									],
									"path": [
										"api",
										"posts",
										"<integer>",
										"<integer>"
									]
								}
							},
							"status": "Not Found",
							"code": 404,
							"_postman_previewlanguage": "text",
							"header": [
								{
									"key": "Content-Type",
									"value": "text/plain"
								}
							],
							"cookie": [],
							"body": ""
						}
					]
				},
				{
					"name": "getAllAuthorsPublicPosts",
					"event": [
						{
							"listen": "test",
							"script": {
								"id": "59e0adef-c7e3-47ad-8408-ad95335159f0",
								"exec": [
									"pm.test(\"Status code is 200\", function () {",
									"    pm.response.to.have.status(200);",
									"});",
									"pm.test(\"response should be okay to process\", function () {",
									"    pm.response.to.not.be.error;",
									"    pm.response.to.not.be.null;",
									"    pm.response.to.not.have.jsonBody(\"error\");",
									"});",
									"",
									"const jsonData = pm.response.json();",
									"",
									"pm.test(\"Check ocupation area of this author\", function () {",
									"    pm.expect(jsonData[0].author.occupation.occupationArea).to.eql(\"Stand up comedian\");",
									"});",
									"",
									"",
									"",
									"console.log(jsonData);"
								],
								"type": "text/javascript"
							}
						}
					],
					"request": {
						"auth": {
							"type": "noauth"
						},
						"method": "GET",
						"header": [
							{
								"key": "Content-Type",
								"name": "Content-Type",
								"value": "application/x-www-form-urlencoded",
								"type": "text"
							}
						],
						"url": {
							"raw": "{{baseUrl}}/api/posts/:userId/1/1",
							"host": [
								"{{baseUrl}}"
							],
							"path": [
								"api",
								"posts",
								":userId",
								"1",
								"1"
							],
							"variable": [
								{
									"key": "userId",
									"value": "70"
								}
							]
						}
					},
					"response": [
						{
							"name": "Forbidden",
							"originalRequest": {
								"method": "GET",
								"header": [],
								"url": {
									"raw": "{{baseUrl}}/api/posts/authorPublic/<long>/<integer>/<integer>",
									"host": [
										"{{baseUrl}}"
									],
									"path": [
										"api",
										"posts",
										"authorPublic",
										"<long>",
										"<integer>",
										"<integer>"
									]
								}
							},
							"status": "Forbidden",
							"code": 403,
							"_postman_previewlanguage": "text",
							"header": [
								{
									"key": "Content-Type",
									"value": "text/plain"
								}
							],
							"cookie": [],
							"body": ""
						},
						{
							"name": "Not Found",
							"originalRequest": {
								"method": "GET",
								"header": [],
								"url": {
									"raw": "{{baseUrl}}/api/posts/authorPublic/<long>/<integer>/<integer>",
									"host": [
										"{{baseUrl}}"
									],
									"path": [
										"api",
										"posts",
										"authorPublic",
										"<long>",
										"<integer>",
										"<integer>"
									]
								}
							},
							"status": "Not Found",
							"code": 404,
							"_postman_previewlanguage": "text",
							"header": [
								{
									"key": "Content-Type",
									"value": "text/plain"
								}
							],
							"cookie": [],
							"body": ""
						},
						{
							"name": "Unauthorized",
							"originalRequest": {
								"method": "GET",
								"header": [],
								"url": {
									"raw": "{{baseUrl}}/api/posts/authorPublic/<long>/<integer>/<integer>",
									"host": [
										"{{baseUrl}}"
									],
									"path": [
										"api",
										"posts",
										"authorPublic",
										"<long>",
										"<integer>",
										"<integer>"
									]
								}
							},
							"status": "Unauthorized",
							"code": 401,
							"_postman_previewlanguage": "text",
							"header": [
								{
									"key": "Content-Type",
									"value": "text/plain"
								}
							],
							"cookie": [],
							"body": ""
						},
						{
							"name": "OK",
							"originalRequest": {
								"method": "GET",
								"header": [],
								"url": {
									"raw": "{{baseUrl}}/api/posts/authorPublic/<long>/<integer>/<integer>",
									"host": [
										"{{baseUrl}}"
									],
									"path": [
										"api",
										"posts",
										"authorPublic",
										"<long>",
										"<integer>",
										"<integer>"
									]
								}
							},
							"status": "OK",
							"code": 200,
							"_postman_previewlanguage": "text",
							"header": [
								{
									"key": "Content-Type",
									"value": "*/*"
								}
							],
							"cookie": [],
							"body": ""
						}
					]
				},
				{
					"name": "getAllAuthorsPosts",
					"event": [
						{
							"listen": "test",
							"script": {
								"id": "bc635a20-7d4d-44c5-bf27-0ae437825c23",
								"exec": [
									"pm.test(\"Status code is 200\", function () {",
									"    pm.response.to.have.status(200);",
									"});",
									"pm.test(\"response should be okay to process\", function () {",
									"    pm.response.to.not.be.error;",
									"    pm.response.to.not.be.null;",
									"    pm.response.to.not.have.jsonBody(\"error\");",
									"});",
									"",
									"pm.test('Response has a valid Content-Type header', function() {",
									"  pm.expect(pm.response.headers.get('content-type')).to.include('application/json;charset=UTF-8');",
									"});",
									"",
									"var jsonData = pm.response.json;",
									"",
									"pm.test(\"Check first post id of this author\", function () {",
									"    var jsonData = pm.response.json();",
									"    pm.expect(jsonData[0].postId).to.eql(180);",
									"});",
									"",
									"pm.test(\"Check first name of this author\", function () {",
									"    var jsonData = pm.response.json();",
									"    pm.expect(jsonData[0].author.firstName).to.eql(\"Kremena\");",
									"});",
									""
								],
								"type": "text/javascript"
							}
						}
					],
					"protocolProfileBehavior": {
						"disableBodyPruning": true
					},
					"request": {
						"auth": {
							"type": "noauth"
						},
						"method": "GET",
						"header": [
							{
								"key": "Content-Type",
								"name": "Content-Type",
								"value": "application/x-www-form-urlencoded",
								"type": "text"
							}
						],
						"body": {
							"mode": "raw",
							"raw": ""
						},
						"url": {
							"raw": "{{baseUrl}}/api/posts/:userId/:fromPage/:postPerPage",
							"host": [
								"{{baseUrl}}"
							],
							"path": [
								"api",
								"posts",
								":userId",
								":fromPage",
								":postPerPage"
							],
							"variable": [
								{
									"key": "userId",
									"value": "70"
								},
								{
									"key": "fromPage",
									"value": "3"
								},
								{
									"key": "postPerPage",
									"value": "1"
								}
							]
						}
					},
					"response": [
						{
							"name": "Unauthorized",
							"originalRequest": {
								"method": "GET",
								"header": [],
								"url": {
									"raw": "{{baseUrl}}/api/posts/<long>/<integer>/<integer>",
									"host": [
										"{{baseUrl}}"
									],
									"path": [
										"api",
										"posts",
										"<long>",
										"<integer>",
										"<integer>"
									]
								}
							},
							"status": "Unauthorized",
							"code": 401,
							"_postman_previewlanguage": "text",
							"header": [
								{
									"key": "Content-Type",
									"value": "text/plain"
								}
							],
							"cookie": [],
							"body": ""
						},
						{
							"name": "Not Found",
							"originalRequest": {
								"method": "GET",
								"header": [],
								"url": {
									"raw": "{{baseUrl}}/api/posts/<long>/<integer>/<integer>",
									"host": [
										"{{baseUrl}}"
									],
									"path": [
										"api",
										"posts",
										"<long>",
										"<integer>",
										"<integer>"
									]
								}
							},
							"status": "Not Found",
							"code": 404,
							"_postman_previewlanguage": "text",
							"header": [
								{
									"key": "Content-Type",
									"value": "text/plain"
								}
							],
							"cookie": [],
							"body": ""
						},
						{
							"name": "OK",
							"originalRequest": {
								"method": "GET",
								"header": [],
								"url": {
									"raw": "{{baseUrl}}/api/posts/<long>/<integer>/<integer>",
									"host": [
										"{{baseUrl}}"
									],
									"path": [
										"api",
										"posts",
										"<long>",
										"<integer>",
										"<integer>"
									]
								}
							},
							"status": "OK",
							"code": 200,
							"_postman_previewlanguage": "text",
							"header": [
								{
									"key": "Content-Type",
									"value": "*/*"
								}
							],
							"cookie": [],
							"body": ""
						},
						{
							"name": "Forbidden",
							"originalRequest": {
								"method": "GET",
								"header": [],
								"url": {
									"raw": "{{baseUrl}}/api/posts/<long>/<integer>/<integer>",
									"host": [
										"{{baseUrl}}"
									],
									"path": [
										"api",
										"posts",
										"<long>",
										"<integer>",
										"<integer>"
									]
								}
							},
							"status": "Forbidden",
							"code": 403,
							"_postman_previewlanguage": "text",
							"header": [
								{
									"key": "Content-Type",
									"value": "text/plain"
								}
							],
							"cookie": [],
							"body": ""
						}
					]
				},
				{
					"name": "getAllRequestOfferForAdult",
					"event": [
						{
							"listen": "test",
							"script": {
								"id": "66a2c4d1-35e8-4f76-bb04-1c63282eac47",
								"exec": [
									"pm.test(\"Status code is 200\", function () {",
									"    pm.response.to.have.status(200);",
									"});",
									"",
									"pm.test(\"The response body is JSON\", () => {",
									"    pm.response.to.be.json;",
									"});",
									"",
									"pm.test(\"response should be okay to process\", function () {",
									"    pm.response.to.not.be.error;",
									"    pm.response.to.not.be.null;",
									"    pm.response.to.not.have.jsonBody(\"error\");",
									"});",
									"",
									"pm.test('Response has a valid Content-Type header', function() {",
									"  pm.expect(pm.response.headers.get('content-type')).to.include('application/json;charset=UTF-8');",
									"});",
									"",
									"",
									"const jsonData = pm.response.json();",
									"",
									"pm.test(\"Check ocupation area of the first author\", function () {",
									"    pm.expect(jsonData[0].author.occupation.occupationArea).to.eql(\"Stand up comedian\");",
									"});",
									"",
									"",
									"",
									"console.log(jsonData);"
								],
								"type": "text/javascript"
							}
						}
					],
					"request": {
						"method": "GET",
						"header": [],
						"url": {
							"raw": "{{baseUrl}}/api/posts/requestOfferForAdult/1/1",
							"host": [
								"{{baseUrl}}"
							],
							"path": [
								"api",
								"posts",
								"requestOfferForAdult",
								"1",
								"1"
							]
						}
					},
					"response": []
				},
				{
					"name": "getAllRequestOfferForKids",
					"event": [
						{
							"listen": "test",
							"script": {
								"id": "544bda34-743b-4536-b3f8-dc8ac92759d6",
								"exec": [
									"pm.test(\"Status code is 200\", function () {",
									"    pm.response.to.have.status(200);",
									"});",
									"",
									"pm.test(\"The response body is JSON\", () => {",
									"    pm.response.to.be.json;",
									"});",
									"",
									"pm.test(\"response should be okay to process\", function () {",
									"    pm.response.to.not.be.error;",
									"    pm.response.to.not.be.null;",
									"    pm.response.to.not.have.jsonBody(\"error\");",
									"});",
									"",
									"pm.test('Response has a valid Content-Type header', function() {",
									"  pm.expect(pm.response.headers.get('content-type')).to.include('application/json;charset=UTF-8');",
									"});",
									"",
									"const jsonData = pm.response.json();",
									"",
									"pm.test(\"Check firstName of the first author\", function () {",
									"    pm.expect(jsonData[0].author.firstName).to.eql(\"Kremena\");",
									"});",
									"",
									"",
									"",
									"console.log(jsonData);"
								],
								"type": "text/javascript"
							}
						}
					],
					"protocolProfileBehavior": {
						"disableBodyPruning": true
					},
					"request": {
						"auth": {
							"type": "noauth"
						},
						"method": "GET",
						"header": [
							{
								"key": "Content-Type",
								"name": "Content-Type",
								"type": "text",
								"value": "application/x-www-form-urlencoded"
							}
						],
						"body": {
							"mode": "urlencoded",
							"urlencoded": [
								{
									"key": "fromPage",
									"value": "1",
									"type": "text"
								},
								{
									"key": "postsPerPage",
									"value": "2",
									"type": "text"
								}
							]
						},
						"url": {
							"raw": "{{baseUrl}}/api/posts/requestOfferForKids/1/1",
							"host": [
								"{{baseUrl}}"
							],
							"path": [
								"api",
								"posts",
								"requestOfferForKids",
								"1",
								"1"
							]
						}
					},
					"response": [
						{
							"name": "OK",
							"originalRequest": {
								"method": "GET",
								"header": [],
								"url": {
									"raw": "{{baseUrl}}/api/posts/requestOfferForKids/<integer>/<integer>",
									"host": [
										"{{baseUrl}}"
									],
									"path": [
										"api",
										"posts",
										"requestOfferForKids",
										"<integer>",
										"<integer>"
									]
								}
							},
							"status": "OK",
							"code": 200,
							"_postman_previewlanguage": "text",
							"header": [
								{
									"key": "Content-Type",
									"value": "*/*"
								}
							],
							"cookie": [],
							"body": ""
						},
						{
							"name": "Forbidden",
							"originalRequest": {
								"method": "GET",
								"header": [],
								"url": {
									"raw": "{{baseUrl}}/api/posts/requestOfferForKids/<integer>/<integer>",
									"host": [
										"{{baseUrl}}"
									],
									"path": [
										"api",
										"posts",
										"requestOfferForKids",
										"<integer>",
										"<integer>"
									]
								}
							},
							"status": "Forbidden",
							"code": 403,
							"_postman_previewlanguage": "text",
							"header": [
								{
									"key": "Content-Type",
									"value": "text/plain"
								}
							],
							"cookie": [],
							"body": ""
						},
						{
							"name": "Unauthorized",
							"originalRequest": {
								"method": "GET",
								"header": [],
								"url": {
									"raw": "{{baseUrl}}/api/posts/requestOfferForKids/<integer>/<integer>",
									"host": [
										"{{baseUrl}}"
									],
									"path": [
										"api",
										"posts",
										"requestOfferForKids",
										"<integer>",
										"<integer>"
									]
								}
							},
							"status": "Unauthorized",
							"code": 401,
							"_postman_previewlanguage": "text",
							"header": [
								{
									"key": "Content-Type",
									"value": "text/plain"
								}
							],
							"cookie": [],
							"body": ""
						},
						{
							"name": "Not Found",
							"originalRequest": {
								"method": "GET",
								"header": [],
								"url": {
									"raw": "{{baseUrl}}/api/posts/requestOfferForKids/<integer>/<integer>",
									"host": [
										"{{baseUrl}}"
									],
									"path": [
										"api",
										"posts",
										"requestOfferForKids",
										"<integer>",
										"<integer>"
									]
								}
							},
							"status": "Not Found",
							"code": 404,
							"_postman_previewlanguage": "text",
							"header": [
								{
									"key": "Content-Type",
									"value": "text/plain"
								}
							],
							"cookie": [],
							"body": ""
						}
					]
				}
			],
			"protocolProfileBehavior": {}
		},
		{
			"name": "City_Rest_Controller",
			"item": [
				{
					"name": "getAllCities",
					"event": [
						{
							"listen": "test",
							"script": {
								"id": "b4d5e22c-5864-4899-8e10-0edcab0e0f58",
								"exec": [
									"pm.test(\"Status code is 200\", function () {",
									"    pm.response.to.have.status(200);",
									"});",
									"",
									"pm.test(\"response should be okay to process\", function () {",
									"    pm.response.to.not.be.error;",
									"    pm.response.to.not.be.null;",
									"    pm.response.to.not.have.jsonBody(\"error\");",
									"});",
									"",
									"pm.test('Response has a valid Content-Type header', function() {",
									"  pm.expect(pm.response.headers.get('content-type')).to.include('application/json;charset=UTF-8');",
									"});",
									""
								],
								"type": "text/javascript"
							}
						}
					],
					"protocolProfileBehavior": {
						"disableBodyPruning": true
					},
					"request": {
						"method": "GET",
						"header": [
							{
								"key": "Content-Type",
								"name": "Content-Type",
								"value": "application/x-www-form-urlencoded",
								"type": "text"
							}
						],
						"body": {
							"mode": "urlencoded",
							"urlencoded": []
						},
						"url": {
							"raw": "{{baseUrl}}/api/cities",
							"host": [
								"{{baseUrl}}"
							],
							"path": [
								"api",
								"cities"
							]
						}
					},
					"response": []
				}
			],
			"protocolProfileBehavior": {}
		},
		{
			"name": "Comment_Controller",
			"item": [
				{
					"name": "newComment",
					"request": {
						"method": "POST",
						"header": [
							{
								"key": "Content-Type",
								"name": "Content-Type",
								"value": "application/x-www-form-urlencoded",
								"type": "text"
							}
						],
						"body": {
							"mode": "urlencoded",
							"urlencoded": [
								{
									"key": "commentBody",
									"value": "New comment here",
									"type": "text",
									"disabled": true
								},
								{
									"key": "postAuthorEmail",
									"value": "kremena_victoria@yahoo.com",
									"type": "text",
									"disabled": true
								},
								{
									"key": "postAuthorFirstName",
									"value": "Kremena",
									"type": "text",
									"disabled": true
								},
								{
									"key": "postAuthorLastName",
									"value": "Georgieva",
									"type": "text",
									"disabled": true
								},
								{
									"key": "postAuthorPassword",
									"value": "qwerty123",
									"type": "text",
									"disabled": true
								},
								{
									"key": "postAuthorPhoto",
									"value": "photo here",
									"type": "text",
									"disabled": true
								}
							]
						},
						"url": {
							"raw": "{{baseUrl}}/new/6",
							"host": [
								"{{baseUrl}}"
							],
							"path": [
								"new",
								"6"
							]
						}
					},
					"response": []
				},
				{
					"name": "updateComment",
					"event": [
						{
							"listen": "test",
							"script": {
								"id": "70a98811-babe-4c93-81fe-bdd4d7ab2257",
								"exec": [
									"pm.test(\"Status code is 200\", function () {",
									"    pm.response.to.have.status(200);",
									"});",
									"",
									"pm.test(\"Response time is less than 200ms\", function () {",
									"    pm.expect(pm.response.responseTime).to.be.below(1200);",
									"});"
								],
								"type": "text/javascript"
							}
						}
					],
					"request": {
						"method": "GET",
						"header": [],
						"url": {
							"raw": "{{baseUrl}}/comments/update/1/3",
							"host": [
								"{{baseUrl}}"
							],
							"path": [
								"comments",
								"update",
								"1",
								"3"
							]
						}
					},
					"response": []
				}
			],
			"protocolProfileBehavior": {}
		},
		{
			"name": "Comment-Rest_Controller",
			"item": [
				{
					"name": "getAllComments",
					"event": [
						{
							"listen": "test",
							"script": {
								"id": "3d4076ec-1116-44ca-8ed6-6f9828616a51",
								"exec": [
									"",
									"tests[\"content-type header is present\"] = postman.getResponseHeader(\"content-type\");"
								],
								"type": "text/javascript"
							}
						}
					],
					"request": {
						"auth": {
							"type": "basic",
							"basic": [
								{
									"key": "password",
									"value": "0987654321",
									"type": "string"
								},
								{
									"key": "username",
									"value": "ivcheto1990@abv.bg",
									"type": "string"
								}
							]
						},
						"method": "GET",
						"header": [],
						"url": {
							"raw": "{{baseUrl}}/api/comments/admin/1/1",
							"host": [
								"{{baseUrl}}"
							],
							"path": [
								"api",
								"comments",
								"admin",
								"1",
								"1"
							]
						}
					},
					"response": [
						{
							"name": "Unauthorized",
							"originalRequest": {
								"method": "GET",
								"header": [],
								"url": {
									"raw": "{{baseUrl}}/comments?authenticated=<boolean>&authorities[0].authority=<string>&credentials=&details=&principal=",
									"host": [
										"{{baseUrl}}"
									],
									"path": [
										"comments"
									],
									"query": [
										{
											"key": "authenticated",
											"value": "<boolean>"
										},
										{
											"key": "authorities[0].authority",
											"value": "<string>"
										},
										{
											"key": "credentials",
											"value": ""
										},
										{
											"key": "details",
											"value": ""
										},
										{
											"key": "principal",
											"value": ""
										}
									]
								}
							},
							"status": "Unauthorized",
							"code": 401,
							"_postman_previewlanguage": "text",
							"header": [
								{
									"key": "Content-Type",
									"value": "text/plain"
								}
							],
							"cookie": [],
							"body": ""
						},
						{
							"name": "Not Found",
							"originalRequest": {
								"method": "GET",
								"header": [],
								"url": {
									"raw": "{{baseUrl}}/comments?authenticated=<boolean>&authorities[0].authority=<string>&credentials=&details=&principal=",
									"host": [
										"{{baseUrl}}"
									],
									"path": [
										"comments"
									],
									"query": [
										{
											"key": "authenticated",
											"value": "<boolean>"
										},
										{
											"key": "authorities[0].authority",
											"value": "<string>"
										},
										{
											"key": "credentials",
											"value": ""
										},
										{
											"key": "details",
											"value": ""
										},
										{
											"key": "principal",
											"value": ""
										}
									]
								}
							},
							"status": "Not Found",
							"code": 404,
							"_postman_previewlanguage": "text",
							"header": [
								{
									"key": "Content-Type",
									"value": "text/plain"
								}
							],
							"cookie": [],
							"body": ""
						},
						{
							"name": "OK",
							"originalRequest": {
								"method": "GET",
								"header": [],
								"url": {
									"raw": "{{baseUrl}}/comments?authenticated=<boolean>&authorities[0].authority=<string>&credentials=&details=&principal=",
									"host": [
										"{{baseUrl}}"
									],
									"path": [
										"comments"
									],
									"query": [
										{
											"key": "authenticated",
											"value": "<boolean>"
										},
										{
											"key": "authorities[0].authority",
											"value": "<string>"
										},
										{
											"key": "credentials",
											"value": ""
										},
										{
											"key": "details",
											"value": ""
										},
										{
											"key": "principal",
											"value": ""
										}
									]
								}
							},
							"status": "OK",
							"code": 200,
							"_postman_previewlanguage": "text",
							"header": [
								{
									"key": "Content-Type",
									"value": "*/*"
								}
							],
							"cookie": [],
							"body": "<string>"
						},
						{
							"name": "Forbidden",
							"originalRequest": {
								"method": "GET",
								"header": [],
								"url": {
									"raw": "{{baseUrl}}/comments?authenticated=<boolean>&authorities[0].authority=<string>&credentials=&details=&principal=",
									"host": [
										"{{baseUrl}}"
									],
									"path": [
										"comments"
									],
									"query": [
										{
											"key": "authenticated",
											"value": "<boolean>"
										},
										{
											"key": "authorities[0].authority",
											"value": "<string>"
										},
										{
											"key": "credentials",
											"value": ""
										},
										{
											"key": "details",
											"value": ""
										},
										{
											"key": "principal",
											"value": ""
										}
									]
								}
							},
							"status": "Forbidden",
							"code": 403,
							"_postman_previewlanguage": "text",
							"header": [
								{
									"key": "Content-Type",
									"value": "text/plain"
								}
							],
							"cookie": [],
							"body": ""
						}
					]
				},
				{
					"name": "getCommentByPostView",
					"event": [
						{
							"listen": "test",
							"script": {
								"id": "60791d0d-d9b8-44d4-aa33-bc5fd1c0d92d",
								"exec": [
									"pm.test(\"Status code is 200\", function () {",
									"    pm.response.to.have.status(200);",
									"});",
									"",
									""
								],
								"type": "text/javascript"
							}
						}
					],
					"request": {
						"method": "GET",
						"header": [],
						"url": {
							"raw": "{{baseUrl}}/api/comments/byPost/179/1/1",
							"host": [
								"{{baseUrl}}"
							],
							"path": [
								"api",
								"comments",
								"byPost",
								"179",
								"1",
								"1"
							]
						}
					},
					"response": []
				}
			],
			"protocolProfileBehavior": {}
		},
		{
			"name": "User-Rest_Controller",
			"item": [
				{
					"name": "getUserById",
					"event": [
						{
							"listen": "test",
							"script": {
								"id": "6592fd91-f261-4f71-90b5-b0ba0e0c4c01",
								"exec": [
									"// Parsing all the response data and saving that to a variable ",
									"const jsonData = pm.response.json();",
									"",
									"// Check that the response body is not empty",
									"// The pm.expect() function takes an additional argument to add custom messages to the assertion",
									"pm.test(\"The response body is not empty\", () => {",
									"    pm.expect(pm.response.json(), \"The response body is empty\").to.not.be.empty;",
									"});",
									"",
									"// Check that the status code label contains the correct value",
									"pm.test(\"The status code is OK\", () => {",
									"    pm.response.to.have.status('OK')",
									"})",
									"",
									"// Check that the body is JSON",
									"pm.test(\"The response body is JSON\", () => {",
									"    pm.response.to.be.json;",
									"});",
									"",
									"// Check that the response contains the correct headers ",
									"pm.test(\"The Content-Type header is returned in the response\", () => { ",
									"    pm.response.to.have.header(\"Content-Type\");",
									"});",
									"",
									"// Check that the response header is the correct value",
									"pm.test(\"The Content-Type header has the correct value\", () => { ",
									"    pm.response.to.have.header(\"Content-Type\", \"application/json;charset=UTF-8\");",
									"});"
								],
								"type": "text/javascript"
							}
						}
					],
					"request": {
						"method": "GET",
						"header": [],
						"url": {
							"raw": "{{baseUrl}}/api/users/70",
							"host": [
								"{{baseUrl}}"
							],
							"path": [
								"api",
								"users",
								"70"
							]
						}
					},
					"response": []
				},
				{
					"name": "getUsers",
					"event": [
						{
							"listen": "test",
							"script": {
								"id": "f9b4752a-60bc-47cd-9a43-7588d0bfe429",
								"exec": [
									"const jsonData = pm.response.json();",
									"",
									"// Check that the response body is not empty",
									"// The pm.expect() function takes an additional argument to add custom messages to the assertion",
									"pm.test(\"The response body is not empty\", () => {",
									"    pm.expect(pm.response.json(), \"The response body is empty\").to.not.be.empty;",
									"});",
									"",
									"// Check that the status code label contains the correct value",
									"pm.test(\"The status code is OK\", () => {",
									"    pm.response.to.have.status('OK')",
									"})",
									"",
									"// Check that the body is JSON",
									"pm.test(\"The response body is JSON\", () => {",
									"    pm.response.to.be.json;",
									"});",
									""
								],
								"type": "text/javascript"
							}
						}
					],
					"request": {
						"method": "GET",
						"header": [],
						"url": {
							"raw": "{{baseUrl}}/api/users/all/1/1",
							"host": [
								"{{baseUrl}}"
							],
							"path": [
								"api",
								"users",
								"all",
								"1",
								"1"
							]
						}
					},
					"response": []
				}
			],
			"protocolProfileBehavior": {}
		},
		{
			"name": "Users_Editing_Controller",
			"item": [
				{
					"name": "getAllUsersPages",
					"event": [
						{
							"listen": "test",
							"script": {
								"id": "d4f382ed-2afe-4ee6-9d4e-269d06be7193",
								"exec": [
									"pm.test(\"Status code is 200\", function () {",
									"    pm.response.to.have.status(200);",
									"});",
									"    ",
									"pm.test(\"Content-Type is present\", function () {",
									"    pm.response.to.have.header(\"Content-Type\");",
									"});"
								],
								"type": "text/javascript"
							}
						}
					],
					"request": {
						"method": "GET",
						"header": [],
						"url": {
							"raw": "{{baseUrl}}/users",
							"host": [
								"{{baseUrl}}"
							],
							"path": [
								"users"
							]
						}
					},
					"response": []
				},
				{
					"name": "updateUser",
					"request": {
						"method": "POST",
						"header": [
							{
								"key": "Content-Type",
								"name": "Content-Type",
								"value": "application/x-www-form-urlencoded",
								"type": "text"
							}
						],
						"body": {
							"mode": "urlencoded",
							"urlencoded": [
								{
									"key": "firstName",
									"value": "Krem",
									"type": "text"
								}
							]
						},
						"url": {
							"raw": "{{baseUrl}}/users/update/91",
							"host": [
								"{{baseUrl}}"
							],
							"path": [
								"users",
								"update",
								"91"
							]
						}
					},
					"response": []
				},
				{
					"name": "showUpdateForm",
					"event": [
						{
							"listen": "test",
							"script": {
								"id": "f77841fe-0b1e-4158-a4c6-21dee08cd3cd",
								"exec": [
									"pm.test(\"Response time is less than 200ms\", function () {",
									"    pm.expect(pm.response.responseTime).to.be.below(2500);",
									"});",
									"",
									"pm.test(\"Status code is 200\", function () {",
									"    pm.response.to.have.status(200);",
									"});"
								],
								"type": "text/javascript"
							}
						}
					],
					"request": {
						"method": "GET",
						"header": [],
						"url": {
							"raw": "{{baseUrl}}/users/update/91",
							"host": [
								"{{baseUrl}}"
							],
							"path": [
								"users",
								"update",
								"91"
							]
						}
					},
					"response": []
				}
			],
			"protocolProfileBehavior": {}
		},
		{
			"name": "ReplyComments_Rest_Controller",
			"item": [
				{
					"name": "getAllReplyComments",
					"event": [
						{
							"listen": "test",
							"script": {
								"id": "08220bb8-e6d2-4186-8220-dab061d9fe44",
								"exec": [
									"pm.test(\"The status code is OK\", () => {",
									"    pm.response.to.have.status('OK')",
									"})",
									"",
									"// Check that the body is JSON",
									"pm.test(\"The response body is JSON\", () => {",
									"    pm.response.to.be.json;",
									"});",
									"",
									"pm.test(\"The Content-Type header has the correct value\", () => { ",
									"    pm.response.to.have.header(\"Content-Type\", \"application/json;charset=UTF-8\");",
									"});"
								],
								"type": "text/javascript"
							}
						}
					],
					"request": {
						"method": "GET",
						"header": [],
						"url": {
							"raw": "{{baseUrl}}/api/replyComments/admin/1/1",
							"host": [
								"{{baseUrl}}"
							],
							"path": [
								"api",
								"replyComments",
								"admin",
								"1",
								"1"
							]
						}
					},
					"response": []
				},
				{
					"name": "getCommentsByPostView",
					"event": [
						{
							"listen": "test",
							"script": {
								"id": "3f3737cd-4371-4ddc-8ba7-3f9e1618a794",
								"exec": [
									"pm.test(\"Status code is 200\", function () {",
									"    pm.response.to.have.status(200);",
									"});"
								],
								"type": "text/javascript"
							}
						}
					],
					"request": {
						"method": "GET",
						"header": [],
						"url": {
							"raw": "{{baseUrl}}/api/replyComments/byComment/67/1/1",
							"host": [
								"{{baseUrl}}"
							],
							"path": [
								"api",
								"replyComments",
								"byComment",
								"67",
								"1",
								"1"
							]
						}
					},
					"response": []
				}
			],
			"protocolProfileBehavior": {}
		},
		{
			"name": "Freindship_Rest_Controller",
			"item": [
				{
					"name": "showFriendsList",
					"event": [
						{
							"listen": "test",
							"script": {
								"id": "ec1f63bd-3e63-4244-83de-c5d172f1a64e",
								"exec": [
									"pm.test(\"Status code is 200\", function () {",
									"    pm.response.to.have.status(200);",
									"});",
									"",
									"pm.test(\"The status code is OK\", () => {",
									"    pm.response.to.have.status('OK')",
									"})",
									"",
									"// Check that the body is JSON",
									"pm.test(\"The response body is JSON\", () => {",
									"    pm.response.to.be.json;",
									"});",
									"",
									"// Check that the response contains the correct headers ",
									"pm.test(\"The Content-Type header is returned in the response\", () => { ",
									"    pm.response.to.have.header(\"Content-Type\");",
									"});",
									"",
									"// Check that the response header is the correct value",
									"pm.test(\"The Content-Type header has the correct value\", () => { ",
									"    pm.response.to.have.header(\"Content-Type\", \"application/json;charset=UTF-8\");",
									"});"
								],
								"type": "text/javascript"
							}
						}
					],
					"request": {
						"method": "GET",
						"header": [],
						"url": {
							"raw": "{{baseUrl}}/api/friendship/friendsList",
							"host": [
								"{{baseUrl}}"
							],
							"path": [
								"api",
								"friendship",
								"friendsList"
							]
						}
					},
					"response": []
				},
				{
					"name": "showPendingFriendsList",
					"request": {
						"method": "GET",
						"header": [],
						"url": {
							"raw": "{{baseUrl}}/api/friendship/pendingFriendslList",
							"host": [
								"{{baseUrl}}"
							],
							"path": [
								"api",
								"friendship",
								"pendingFriendslList"
							]
						}
					},
					"response": []
				}
			],
			"protocolProfileBehavior": {}
		},
		{
			"name": "lookingForCookie",
			"event": [
				{
					"listen": "test",
					"script": {
						"id": "0bf9ff23-a9cd-45ae-9924-3323f324bfef",
						"exec": [
							"pm.test(\"Response contains a JSESSIONID cookie\", function() {\r",
							"    pm.expect(pm.cookies.has('JSESSIONID')).to.be.true;\r",
							"});"
						],
						"type": "text/javascript"
					}
				}
			],
			"request": {
				"method": "GET",
				"header": [],
				"url": {
					"raw": "{{baseUrl}}",
					"host": [
						"{{baseUrl}}"
					]
				}
			},
			"response": []
		},
		{
			"name": "registerUserAccount",
			"event": [
				{
					"listen": "test",
					"script": {
						"id": "b3df8fca-569c-41fa-a20e-58509d21e2e1",
						"exec": [
							"pm.test(\"Status code is 200\", function () {",
							"    pm.response.to.have.status(200);",
							"});",
							"",
							"",
							"pm.test(\"Content-Type is present\", function () {",
							"    pm.response.to.have.header(\"Content-Type\");",
							"});",
							"",
							"pm.test(\"Body matches string\", function () {",
							"    pm.expect(pm.response.text()).to.include(\"There is already an account registered with that email\");",
							"});"
						],
						"type": "text/javascript"
					}
				}
			],
			"request": {
				"method": "POST",
				"header": [],
				"url": {
					"raw": "{{baseUrl}}/new-validation?email=kremenja@abv.bg",
					"host": [
						"{{baseUrl}}"
					],
					"path": [
						"new-validation"
					],
					"query": [
						{
							"key": "email",
							"value": "kremenja@abv.bg"
						}
					]
				}
			},
			"response": []
		}
	],
	"event": [
		{
			"listen": "prerequest",
			"script": {
				"id": "990766a4-0be1-4f69-8b4b-7dc93e63869c",
				"type": "text/javascript",
				"exec": [
					""
				]
			}
		},
		{
			"listen": "test",
			"script": {
				"id": "c162606b-6da7-46db-8262-9e14cd9bf47f",
				"type": "text/javascript",
				"exec": [
					""
				]
			}
		}
	],
	"protocolProfileBehavior": {}
}